CS6460: Educational Technology (Spring 2016) 

Assignment 2: Exploring Your Area 

Petr Bela 

 

 

 

 
I’m interested in exploring the K­12 education area, specifically building learning materials for
 
kids. The three skills every kid needs to learn are Reading, Writing and Math. In recent years, a
   
fourth indispensable skill has emerged: coding. Let’s explore each of them and look at how
 
existing educational technology products improve the hundred­years old classroom experience. 

 
 
 

 
 

 
 

 
 

 
 

 
 

 

 

 

 

 

 

 

 

 

 

 

 

 

 

 

 

 

 

 

 

 

 

 

 

 

 

 

 

 

 

 

 

 

Reading & Writing 
 
Classroom Inc builds games that teach literacy and leadership. In their latest game, After the
Storm, the kids collectively write stories for a fictional magazine. 
 
Another startup, ​Books That Grow​, publishes books that change their difficulty after each
 
chapter, based on a short test. It enables kids with different reading abilities to read the same
 
story in the same speed. 
 
ReadWriteThink has several
 
and improve reading. 

interactive games that develop writing skills, extend vocabulary,

 
 

 
 

 
 

 
 

 

 

 

 

 

 

 

 

 

 

 

 

 

 

 

 

 

 

 

 

 

 

 

 

 

 

 

 

 

 

 

 

 

 

 

 

 

 

 

 

 
 

Math 
 
Khan Academy is perhaps the best known platform for teaching Math as well as History,
 
Economy, Art and several other subjects. They originally started as a collection of videos
 
explaining various topics but have since also built interactive courses designed to be used in
 
 
flipped classrooms. 
 
School Yourself provides interactive math lessons. The team has now become part of ​Amplify
 
where they continue to build games that teach math and other STEM skills. 

 
 

 
 

 
 

 
 

 
 

 

 

 

 

 

 

 

 

 

 

 

 

 

 

 

 

 

 

 

 

 

 

 

 

 

 

 

 

 

 

 

 

 

 

 

 

 

 

 

Coding 
 
Several non­profit organizations exist, most notably ​code.org​, with support from numerous
 
 
celebrities such as Mark Zuckerberg and Barack Obama. It teaches kids to code by composing

 
 

 
 

 

 

 

 

 

 

 

 

 

 

 

 

 

 

 

 

 

 

 

 

 

 

simple algorithm to draw shapes. The platform is based on ​Blockly which is a popular tool to
 
 
 
teach coding using blocks of code. 
 

 

 

 

 

 

 

 

 

 

 

 

 

 

 

 

 

 

Other 
 
Google has just recently introduced ​Google Expedition​.
 
It’s an interactive 3D virtual tour
 
experience leveraging Google Cardboard. It enables kids to visit a remote place just by putting
 
 
 
on their headsets, while providing teachers with tools to help them explain the content. 
 
Corinth Education builds interactive 3D models of human body, animals, plants and geology.
The content is used in biology classes. 
 

 
 

 

 

 

 

 

 

 

 

 

 

 

 

 

 

 

 

 

 

 

 

 

 

 

 

 

 

 

 

 

Takeaways 
 
From researching existing products, I have identified several important lessons: 

 

 

● The tools should be self­sufficient. In most cases, the teacher isn’t an expert in the area
 
 
or may not have any experience at all (for example, coding). The role of the teacher is
 
mainly to provide kids with the tools. 

 
 

 
 

 
 

 
 

 
 

 

 

 

 

 

 

 

 

 

 

 

 

 

 

 

 

 

 

 

 

 

 
 

● The programs should be engaging. Many use gamification elements, giving badges for
 
achievements, or by using a favorite movie characters. The lessons may also follow a
 
 
story, where the kid “helps” their character fulfill some goal by taking one step at a time,
 
going from easy concepts to more complex ones. Many of the tools also tend to be
 
visual, or at least provide a visual feedback. 

   
 

 
 
 

 
 

 
 

 
 

 
 

 

 

 

 

 

 

 

 

 

 

 

 

 

 

 

 

 

 

 

 

 

 

 

 

 

 

 

 

 

 

 

 

 

 

 

● Kids can proceed on their own pace. Faster kids won’t get bored and can take on more

 

 

 

 

 

 

 

 

 

 

 

 

 

 

 

 
challenging tasks. 

● Everything is measured. Teachers and parents can have better insights into how well

 

 

 

 

 

 

 

 

 

 

 

 

their kids are doing and what areas they need to improve. 

 

 

