K,rmseIS,corrIS,rmseOS,corrOS
1.0,0.0,1.0,0.237716222234,0.944111176194
2.0,0.117863434564,0.985971678512,0.213547134947,0.952952269598
3.0,0.136590187312,0.981360326901,0.207762150054,0.955537498166
4.0,0.158319703229,0.975383222588,0.212486985302,0.954609910672
5.0,0.166240346459,0.973427600347,0.221620653532,0.951772965431
6.0,0.17594069633,0.97161540002,0.237689111246,0.946508234451
7.0,0.190372419945,0.967528179895,0.247239572658,0.944268967869
8.0,0.201496444354,0.964988623322,0.259628727957,0.938383482968
9.0,0.218001664854,0.959418573483,0.268723178393,0.93599266378
10.0,0.233914971909,0.954402050655,0.275123388016,0.934828370822
11.0,0.242855583286,0.953123373291,0.287798930224,0.930530334316
12.0,0.259662102279,0.947323689615,0.300660721025,0.927021610032
13.0,0.271635176783,0.943783409718,0.316680688995,0.920098605516
14.0,0.287449698456,0.93856412722,0.32960095803,0.914788474044
15.0,0.301414891142,0.932949866613,0.340362526482,0.911635612216
16.0,0.315209006225,0.927422802925,0.354872000756,0.901637187162
17.0,0.329291115339,0.920068093418,0.365797649165,0.894965206415
18.0,0.341167925044,0.914511099395,0.380389701392,0.886112775952
19.0,0.352599176424,0.909333763566,0.392386253022,0.878454788906
20.0,0.365871532944,0.901609467345,0.406261732611,0.866635691164
