CS6460: Educational Technology (Spring 2016) 

Assignment 5: Personal Question 

Petr Bela 

 

 

 

 

 
 

 

 

 
 

 

 

 

 

 

 

 
 

 

 

 

 

 
 

 

 

 

 

 
 

 

 

 

 

 

 

 

 

 
 

 

 

 

 

 

 

 

 

 

 
 

 

 

 

 

 

 

 

 
 

 
 

 

 
 

 

 

 

 

 

 

 

 

 

 

 

 

 

 
 

 

 

 

 

 
 

 

 

 

 

 

 

 

 

 

 

 

 

 

 

 

 

 

 

 

 

 

 

 

 

 
 
 

 
 
 
 

Question 
 
 
In your recent assignment 4, you proposed a system which will help students get an "overall
picture" of their MOOC participation and progress. No such system currently exists across
 
platforms, but some "flipped classrooms" make use of MOOCs and they provide their own
 
additional structure, through either software or instructor best practices, that supports this use.
 
How do these schools handle the problem of tracking and reflecting student progress? How can
 
 
their solutions inform your design? 
  
 
Conversely, students in these flipped classrooms differ from your average MOOC student in one
 
 
important
respect: students in flipped classrooms are still accountable to their individual
 
teachers and are relatively unlikely to drop out, whereas students in MOOCs tend to have very
 
 
 
low retention rates. What prior research has been done on MOOCs generally and MOOC
retention specifically? Can you find any literature which ties low retention to the lack of this
 
 
structure, or suggests it will be buoyed by a framework such as you describe? 
 
 
MOOC in Flipped Classrooms 
 
The premise of MOOCs is spreading high­quality education to anyone in the world. Leading
 
universities and professors produce MOOCs in the hope of reaching students on a much larger
 
 
scale that they ever could in an in­person classroom setting. The quality of these materials is
 
usually very high. Many teachers worldwide have decided to build their university course around
a MOOC. In these “wrapped” courses, students are required to watch corresponding MOOC
 
 
 
lecture before coming to the class. In the class, they either further discuss the topics, or try to
apply them on some project. To finish the course, the students have to complete both the
 
MOOC and the in­person course requirements. How do the teachers keep track of what the
 
students have accomplished online? 
 
In an obvious advantage are teachers who create a MOOC and then use it to teach a flipped
class to on­campus students. MOOC platforms have very detailed statistics about user
participation and they are available to the course creator. 
 

   
 

 
 
 

 
 

 
 

 

 

 
 

 

 

 

 

 

 

 

 

 

 

 

 

 

 

 

 

 

 

 

   

 

 

 

 

 

 

 

 

 

 

 

 

 

 

 

 

 

 

 

 
 

 

 
 

 

 

 

 

 

 

 

 

 

 

 

 

 

 

 

 

 

 

 

 

 

 

 

 

 
 

 

 

 

 

 

 

 

 

 

 

 
 

 

 

 

 
 

 

 

 

 

 

 

 

 

 
 

 

 
 

 

 

 

 
 

 

 
 

 
 

 
 

 
 

 
 

 
 

 

 

 
 

 

 

 

 
 

 

 
 

 

 

 
 

 
 

 

 

 

 

 

 
 

 
 

Teachers who want to utilize someone else’s MOOC in their own class need to use different
 
 
methods. For example, Vanderbilt University’s Machine Learning course took advantage of
quizzes and grading in the Stanford University’s MOOC course, and simply asked students to
 
send a screenshot when they passed a lecture. 
 

 
 

 
 

 

 

 

 

 

 

 

 

 

 

 

 

 

 

 

 

 

 

 

 

 

 

 

 

 

 

 

 

 

 

 
 

Students in the fall 2012 course (...) enrolled in and were required to complete Ng’s ​Machine
 
 
Learning MOOC on the Coursera platform. (...) Students were asked to take screenshots of their
 
submitted quizzes and programming assignments and send those to Fisher, allowing that work to
 
 
contribute to the students’ grades in the Vanderbilt course. [1] 

 
 

 
 

 
 

 
 

 
 

 

 

 

 

 

 

 

 

 

 

 

 

 

 

 

 

 

 

 

 

 

 

 

 

 

 

 

 

 

 

 

 

 

 
 

 
 

 
 

 
Others integrate MOOC lectures in their own LMS. This can provide them with a unified
 
structure, especially if the class uses other tools than just the MOOC course. The integration is
 
 
more manual though; students need to mark their progress by copying their results. 
 
In any case, there is a lack of integration between a MOOC platform and progress tracking
system used at schools. By having all relevant data available in one system, students and
 
teachers can track progress more easily. 
 

 
 

 
 

 
 

 
 

 
 

 
 

 
 

 

 

 

 

 

 

 

 

 

 

 

 

 

 

 

 

 

 

 

 

 

 

 

 

 

 

 

 

 

 

 

 

 

 

 

 

 

 

 

 

 

 

 

 
 

 
 

MOOC Retention Rate 
 
 
The average MOOC completion rate is around 10%. While this may seem like a shockingly low
number, many argue that it’s because people sign up for MOOCs for different reasons, and
 
many of them only want to skim the subject, never intending to finish the course. [2] 
 
 
What are the factors that make people drop? While most of the reasons people drop courses
 
are related to the actual content, being either too hard, too easy, or poorly managed, some
 
factors may be improved by the platform or tooling around the course. [3] 
 
One aspect that has shown increased engagement in education is using frequent intermediary
 
 
badges of completion, not just a certificate at the end of the course. 
 

 
 

 
 

 
 

   

 
 

 
 

 
 

 

 

 

 

 

 

 

 

 

 

 

 

 

 

 

 

 

 

 

 

 

 

 

 

 

 

 

 

 

 

 

 

 

 

 

 

 

 

 

 

 

 

 

 

 

 

 

 
 

 
 

 
Many participants do not want to do the entire course, are interested in some pieces of information
or do not intend to get a certificate. To make their learning outcomes visible, implement a badge
 
system (CEDEFOP 2009; Schön et al. 2013). Badges showcase the learning process. Even if
 
 
participants do not want to have a certificate for the course, they may want to earn a badge on a
 
 
specific topic, unit or part of the course. [4] 

 
 
 

 
 
 

 
 

 
 

 

 

 

 

 

 

 

 

 

 

 

 

 

 

 

 

 

 

 

 

 

 

 

 

 

 

 

 

 

 

 

 

 

 

 

 

 

 

 

 

 
Other platforms like Duolingo and Khan Academy use a similar system of frequent badges that
 
students can share and compare with their friends. 
 

 

 

 

 

 

 

 

 

 

 

 

 

 

 

 

 

 

 

 
 

 

 
 

 

 

 

 
 

 

 

One of the benefits of real classroom is the regular weekly schedule. Some MOOC courses are
 
provided without any time constraints, which can make sticking to a plan much harder for
 
self­learners.  
 
In some courses, as much as 50% of the students never even login to a course after registering.
 
   
[5]. While MOOC platforms may send reminder e­mails to students who are failing to progress, a
unified platform could understand student’s existing workload and suggest to schedule the
 
course at a later date. 
 

   
 

 
 

 

 

 

 

 

 

 

 

 

 

 

 

 

 

 

 

 

 

 

 

 

 

 

 

 

 

 
 

 

 

 

 

 
 

 
 

 
 

 
 

 

 

 

 
 

 

 
 

 

References 
 
[1] Bruff D, Fisher D, McEwen K. Wrapping a MOOC: Student Perceptions of an Experiment in 
Blended Learning. ​Journal of Online Learning and Teaching​. 2013 
 
[2] Cohen S. Improving MOOC completion rates. Retrieved from 
http://elearnhero.com/moocs­completion­rates/ 
 
[3] Devlin K. MOOCs and the Myths of Dropout Rates and Certification. Retrieved from 
http://www.huffingtonpost.com/dr­keith­devlin/moocs­and­the­myths­of­dr_b_2785808.html 
 
[4] Lackner E. Design a MOOC – Think Granular! Retrieved from 
https://www.class­central.com/report/design­mooc­think­granular/ 
 
[5] Learner Intention Recasts “Low” MOOC Completion Rates. Retrieved from 
http://harvardx.harvard.edu/news/learner­intention 

